{
    "dbs": {
        "mongodb": {
            "uri": "mongodb://newtou:Ahou2545@localhost:27017/vacay?authSource=admin"
        }
    },
    "port": 4000,

    "cloudinary": {
        "name": "lostvane",
        "api": "251267644281596",
        "secret": "D9JI0nJbpPuiYpyzby2sPQgWm4E",
        "upload_preset": "vacay"
    },

    "authorized": {
        "emails": [
            "mymbugua@gmail.com",
            "admin@vacay.co.ke",
            "dkimani@vacay.co.ke"
        ]
    },

    "url": "http://localhost:3000",

    "jwt": {
        "secret": "@3r4SecretYe$ddrhe233DFWS@#DF"
    },
    "slack": {
        "webhook": "https://hooks.slack.com/services/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"
    },
    "logging": {
        "console": true,
        "path": "logs"
    },
    "cors": {
        "enabled": true,
        "origins": [
            "http://localhost:3000",
            "http://localhost:3001",
            "http://localhost:3002",
            "http://localhost:4173"
        ]
    }
}
